{
  "statusCode": 200,
  "message": "Request was successful.",
  "result": {
    "leadReports": [
      {
        "id": 55,
        "email": "",
        "phone": "",
        "createdDate": "2024-10-08 00:32:06",
        "affiliate": "RESERVATIONCENTRE",
        "fromCity": "ABQ | LAS",
        "toCity": "LAS | ABQ",
        "tripType": "R",
        "airLineName": "",
        "flyFrom": "ABQ | LAS",
        "flyTo": "LAS | ABQ",
        "flyDate": "",
        "adult": "1",
        "child": "0",
        "infant": "0",
        "searchType": "R",
        "requestedIP": "206.192.168.23",
        "requestDate": "2024-10-08 00:29:40",
        "browserInfo": "Chrome ,Version: 129.0",
        "customerEmailId": "",
        "device": "Desktop",
        "loginId": "Guest",
        "transactionId": "6386394417753917885",
        "depDate": null,
        "returnDate": null,
        "tenantId": 1000
      },
      {
        "id": 54,
        "email": "",
        "phone": "",
        "createdDate": "2024-10-08 00:27:33",
        "affiliate": "RESERVATIONCENTRE",
        "fromCity": "BNA",
        "toCity": "SAP",
        "tripType": "O",
        "airLineName": "",
        "flyFrom": "BNA",
        "flyTo": "SAP",
        "flyDate": "",
        "adult": "1",
        "child": "0",
        "infant": "0",
        "searchType": "O",
        "requestedIP": "14.194.4.202",
        "requestDate": "2024-10-08 00:27:18",
        "browserInfo": "Chrome ,Version: 129.0",
        "customerEmailId": "",
        "device": "Desktop",
        "loginId": "Guest",
        "transactionId": "63863944033415212926",
        "depDate": null,
        "returnDate": null,
        "tenantId": 1000
      }
    ],
    "totalRecords": 6,
    "pageSize": 4,
    "pageNumber": 1,
    "totalPages": 2,
    "tenantId": 0
  }
}